,user,prediction
1,0407e6d6,1530.3661506440544
3,06bb4a53,0.0
5,07dc9c1e,3895.470846856732
9,0e8edb93,1654.0645278613279
11,1442b647,0.0
13,159229b9,7327.138618590458
17,1d18c6f5,3690.482978657264
19,24d17d12,0.0
20,2877a970,0.0
23,308be15e,0.0
25,3180d7b9,1274.376632093648
26,32256f37,6104.519934226852
28,37a9a69d,317.2747487906204
30,38cee460,2181.2486466076757
31,3b6c15a4,0.0
35,444a92ee,0.0
36,446c6477,0.0
37,44c86daf,2176.2671992387727
40,4be90adc,1296.7714108269224
41,4dd1eb04,5378.40672960341
43,51adc5e3,7141.5198200246705
45,54c227e7,0.0
46,574d8373,129.14788379324682
48,5957a3a4,3462.6724422772636
51,5c628937,4803.71987236938
52,5dd4af2f,4653.529132065629
54,5ebf4bbe,1568.424572301033
55,6044883c,7322.975428501164
59,68f270e1,3359.572533818485
61,6a493db1,16624.601789046686
63,70439ab9,2783.452821086295
64,724001aa,0.0
66,739bc0ed,0.0
67,7721c3a9,9535.770057084215
68,773eba9c,5650.53115780643
71,78e59cf5,0.0
74,83a9576f,0.0
76,8432ccf0,7574.892318414366
79,86050f77,5853.733498554777
80,86652d51,1759.3607084070622
81,86e29aa6,0.0
82,885c8a3c,3005.067906434471
84,8a45cbe6,1846.8396450911646
85,8bb95138,2701.8634081061086
88,8d24cae8,3355.3057644477944
89,8ecd7df5,0.0
91,92532fc2,11813.133514717623
94,93b32fc8,0.0
95,94c79804,0.0
97,95bd67df,1036.1051922998772
98,9710d9fb,9780.995778340186
99,9725876f,1845.538613187417
101,9ab3cae5,0.0
103,9d06bfc8,0.0
104,9dd49d61,11476.149206558004
108,a1d1b05a,5937.356661701362
109,a5428dfa,0.0
111,a8a10f71,566.1957992298017
112,a9d30853,5041.428029229808
114,abccf5a3,962.941684171024
116,ac7d16ea,4415.900188030704
117,b1072df1,21.510810254190346
119,b1ca743f,0.0
120,b52a8bea,0.0
121,b5371a36,0.0
123,badc5ba5,4264.162954438985
128,c055cb16,4078.1887887364314
129,c0e33436,6561.8142195273085
133,c46acbeb,568.9993093403527
134,c50efa7c,0.0
137,cccce917,14.934255732628117
139,cf07b09e,741.9073213747879
140,d03bc73b,2097.7907681977536
141,d2ee12c9,0.0
142,d5453928,10830.212798638688
145,dc7603eb,1244.392420547461
146,dcfc9caa,0.0
147,e1ae9453,0.0
148,e30fe5bd,14.788538333267752
152,e63d55c3,669.7266286000795
153,e785d3d1,8034.943929515268
154,eb0845fb,8847.792307921609
156,ee78efef,11061.331987090101
158,f1229472,2580.6592916181976
161,f68565ee,0.0
164,f9aba49f,6362.369903418261
165,fb04c56e,0.0
168,0cd69eb6,5630.4174624044135
169,10906a26,992.9914116462701
171,29b880f0,0.0
173,37d7549d,8191.654814252432
175,3ec0ab92,5327.650380963742
176,3ec38750,10591.61062951659
177,47b879ac,4783.9206115479465
178,499bcbae,0.0
179,4bcaf11b,10239.416641035934
181,4e293ccd,12190.957938984206
183,58b62317,3117.07688830719
184,5b7a42b3,11906.338009681183
185,5ef9234a,0.0
186,60255eb3,5348.832788597958
187,624490b0,2238.0054199061647
188,6730ca8d,8372.005299784598
191,6b6aa825,0.0
193,74335a16,0.0
194,767b17c1,549.8626751055331
195,76fdf10a,0.0
196,79f10814,2017.5722990392374
197,7b10a203,7930.127799484149
199,8d51b797,1628.9710848951904
200,99425411,0.0
203,a4f3d9ab,4487.6047555080295
204,a65825da,15274.861758528214
206,b843f4f2,0.0
207,bfd2d133,2626.36683278599
208,c6dbc6ef,7575.495009348766
211,d07de082,4767.927334884394
213,d2f428ce,14268.643854567903
214,d9d24e14,9670.137931711688
215,e68b559b,21039.68653783198
218,eeb43be7,0.0
220,f7f65d8d,0.0
222,ff9285c1,8277.411189939772
484,69a937d7,15456.04644714395
786,c8bf437e,3197.2820511370505
0,02e6f7e6,0.0
2,06b840fe,0.0
4,072a29eb,0.0
6,0a6c818a,0.0
7,0b76dab9,0.0
8,0c902909,0.0
10,1385c854,0.0
12,151835fc,0.0
14,17ed053c,0.0
15,193b3377,0.0
16,1b0f6358,0.0
18,1ff2e715,0.0
21,29440652,0.0
22,2c0f1f07,0.0
24,3144902e,0.0
27,33df483b,0.0
29,386d5532,0.0
32,3f5f2bf5,0.0
33,3ffcde67,0.0
34,415c82c2,0.0
38,46ea2fd7,0.0
39,48ff140c,0.0
42,4e981b2f,0.0
44,51dbf003,0.0
47,5762224d,0.0
49,59fdd087,0.0
50,5ab257e3,0.0
53,5e922677,0.0
56,604f99a3,0.0
57,6074969f,0.0
58,60b64f6e,0.0
60,6978076c,0.0
62,6a54bf55,0.0
65,72563905,0.0
69,77fb7cc2,0.0
70,78196a98,0.0
72,7fc39a62,0.0
73,831ee731,0.0
75,83fa8779,0.0
77,84aef6e9,0.0
78,858a6e1c,0.0
83,8910b6ca,0.0
86,8c60c7a4,0.0
87,8cde2208,0.0
90,912301b8,0.0
92,9334302f,0.0
93,93aeaac8,0.0
96,95734cc7,0.0
100,9884eed5,0.0
102,9b09d4e0,0.0
105,9eda107a,0.0
106,9eedec9e,0.0
107,a01710a5,0.0
110,a87542c0,0.0
113,aba14fb5,0.0
115,ac281b4a,0.0
118,b1c4a1da,0.0
122,b584ca16,0.0
124,bb2ea983,0.0
125,bbeab0d3,0.0
126,be6ceebd,0.0
127,bf4b813e,0.0
130,c25457c2,0.0
131,c30c10ba,0.0
132,c3a88a81,0.0
135,c7576c41,0.0
136,c9436e48,0.0
138,ce42ddde,0.0
143,d6889b99,0.0
144,da21000f,0.0
149,e355a16a,0.0
150,e54c184c,0.0
151,e54cefe3,0.0
155,ee5ca9a9,0.0
157,f05903b8,0.0
159,f19222f7,0.0
160,f6039fca,0.0
162,f7571fc5,0.0
163,f9700376,0.0
166,fefb6275,0.0
167,06cc96df,0.0
170,2271498e,0.0
172,2c4117d0,0.0
174,3ac0050d,0.0
180,4bcd93e8,0.0
182,511cffcd,0.0
189,686bea8a,0.0
190,69291fb6,0.0
192,6df7a541,0.0
198,8154390f,0.0
201,a03f38b7,0.0
202,a20b7a9b,0.0
205,b1bfc06b,0.0
209,c7e6cafa,0.0
210,cab5c089,0.0
212,d1031ed0,0.0
216,ed9fd24e,0.0
217,eddb9149,0.0
219,f046a477,0.0
221,ff64376a,0.0
223,0050cebd,0.0
224,007cac1d,0.0
225,00e39ee8,0.0
226,010a10f2,0.0
227,0136fca3,0.0
228,0145c9dd,0.0
229,01f9465c,0.0
230,020c7546,0.0
231,02136ca7,0.0
232,024588d5,0.0
233,03012a34,0.0
234,0378cb91,0.0
235,038ccc06,0.0
236,03f9f7a7,0.0
237,04281f3e,0.0
238,042ceecf,0.0
239,04822845,0.0
240,04c9216b,0.0
241,050fe702,0.0
242,05ef3250,0.0
243,05f03a04,0.0
244,074f749e,0.0
245,075f3bc1,0.0
246,077f1555,0.0
247,07ac373b,0.0
248,085c0248,0.0
249,08eaef59,0.0
250,0a0375fa,0.0
251,0a6d72ee,0.0
252,0a927d4a,0.0
253,0b4e42a7,0.0
254,0be87dfb,0.0
255,0d29aa05,0.0
256,0de167da,0.0
257,0deb4976,0.0
258,0e32c683,0.0
259,0e4c7fa1,0.0
260,0ec6dcf2,0.0
261,0f5e0a05,0.0
262,10720031,0.0
263,107fc11d,0.0
264,110a0c79,0.0
265,114d5dac,0.0
266,115b40a8,0.0
267,115b99c5,0.0
268,123ba295,0.0
269,137bc087,0.0
270,1392eefe,0.0
271,141b27ff,0.0
272,14ccaa6b,0.0
273,152eabaf,0.0
274,15a9fb87,0.0
275,15da8761,0.0
276,15eaf47a,0.0
277,1631972d,0.0
278,164279cb,0.0
279,1670f285,0.0
280,1733e35d,0.0
281,17f0682c,0.0
282,1889f447,0.0
283,18f4f936,0.0
284,196dac03,0.0
285,19fdf712,0.0
286,1a0e17ee,0.0
287,1a9172d8,0.0
288,1ab94e52,0.0
289,1be9a9cb,0.0
290,1ca6c68d,0.0
291,1cdc00a0,0.0
292,1cf759a5,0.0
293,1d6a8dc9,0.0
294,1db8a490,0.0
295,1e73598b,0.0
296,1e7daf8a,0.0
297,1eae1a46,0.0
298,1ede4a3f,0.0
299,1f290c9e,0.0
300,1f760719,0.0
301,1f89b77d,0.0
302,1f9c9363,0.0
303,1fbc8d85,0.0
304,1fc15a1c,0.0
305,1feb50cc,0.0
306,203ea988,0.0
307,20dac523,0.0
308,21a121fc,0.0
309,21bacffd,0.0
310,22004bb5,0.0
311,220f1318,0.0
312,228378a4,0.0
313,22f5c162,0.0
314,23255423,0.0
315,235975f6,0.0
316,239960ed,0.0
317,23d7be28,0.0
318,25294548,0.0
319,259632ce,0.0
320,25e5dfd3,0.0
321,26151c8e,0.0
322,28446916,0.0
323,2844709c,0.0
324,2850870a,0.0
325,28a7dff5,0.0
326,28ab705c,0.0
327,2a0d94e6,0.0
328,2a68f154,0.0
329,2b56544a,0.0
330,2b620e50,0.0
331,2cf0ab0a,0.0
332,2d16387b,0.0
333,2d5db2ea,0.0
334,2dc36fbe,0.0
335,2efb57c5,0.0
336,2f259848,0.0
337,2f60a958,0.0
338,2fe84f1f,0.0
339,2ff1753b,0.0
340,30045a2b,0.0
341,300eda21,0.0
342,30e6a3a9,0.0
343,313c2709,0.0
344,31587864,0.0
345,3206677c,0.0
346,320b3f6f,0.0
347,32f9bc63,0.0
348,32fa6d26,0.0
349,33303aba,0.0
350,33587a30,0.0
351,33ae507a,0.0
352,33cfd2d7,0.0
353,34b36da5,0.0
354,34e34e5b,0.0
355,3522f0e6,0.0
356,357090ae,0.0
357,35828c10,0.0
358,35d62da5,0.0
359,36c4771e,0.0
360,36c6a5f3,0.0
361,381bb761,0.0
362,385b5276,0.0
363,387a638d,0.0
364,38a54121,0.0
365,38b1dd6c,0.0
366,39473e95,0.0
367,3977f3d8,0.0
368,3acf8154,0.0
369,3c0acc21,0.0
370,3c386fe1,0.0
371,3c4b3e04,0.0
372,3c7230a0,0.0
373,3ca8d069,0.0
374,3d13707b,0.0
375,3d68eba9,0.0
376,3e93624e,0.0
377,3e97ad98,0.0
378,3eda4ed5,0.0
379,3f5c0b5d,0.0
380,4003faf0,0.0
381,4015955f,0.0
382,41a00b16,0.0
383,41ab3583,0.0
384,423cab0c,0.0
385,428f9d94,0.0
386,42e77b1e,0.0
387,4301bca8,0.0
388,434c0652,0.0
389,43d89fe2,0.0
390,447cef99,0.0
391,45a3b2d6,0.0
392,45f00a35,0.0
393,4637c946,0.0
394,467a7d94,0.0
395,468dd16b,0.0
396,46fdb78a,0.0
397,4756920c,0.0
398,4770425e,0.0
399,47b01308,0.0
400,486824d6,0.0
401,49658dfd,0.0
402,49c17711,0.0
403,49e27307,0.0
404,49f2ac2b,0.0
405,4aa25b2e,0.0
406,4aba6715,0.0
407,4aebfaa5,0.0
408,4c2cdd19,0.0
409,4c4a70a9,0.0
410,4c6c79d2,0.0
411,4d2c8078,0.0
412,4d40a9ed,0.0
413,4d8c4606,0.0
414,4dfc24fe,0.0
415,4f422a4a,0.0
416,4fc5e895,0.0
417,502d66fe,0.0
418,5058d055,0.0
419,506cf116,0.0
420,50b4b03d,0.0
421,514b36c0,0.0
422,5347b56c,0.0
423,5372ba7a,0.0
424,53862f0a,0.0
425,53f6e246,0.0
426,53fce636,0.0
427,5431e6a5,0.0
428,5493365f,0.0
429,553f736a,0.0
430,557b7445,0.0
431,55e3ef70,0.0
432,561f9145,0.0
433,5670d6ef,0.0
434,567d2741,0.0
435,57111ad5,0.0
436,5726547f,0.0
437,57ffc08f,0.0
438,58b0c572,0.0
439,58f13d1a,0.0
440,59c5eef3,0.0
441,5a337715,0.0
442,5a4eec0b,0.0
443,5a73bc28,0.0
444,5a9412cf,0.0
445,5b08540f,0.0
446,5b9758fa,0.0
447,5badd489,0.0
448,5bea15e7,0.0
449,5c39081e,0.0
450,5ce2f8c5,0.0
451,5d4aba01,0.0
452,5dc34756,0.0
453,5de5b532,0.0
454,5e660824,0.0
455,5ecb6b47,0.0
456,5f035526,0.0
457,5f227ad1,0.0
458,602d8c2e,0.0
459,60bf988a,0.0
460,60d097d2,0.0
461,615b6805,0.0
462,622befac,0.0
463,62547d26,0.0
464,6362834a,0.0
465,63631009,0.0
466,63b1ea48,0.0
467,63d66fa5,0.0
468,63f07d2c,0.0
469,64147e32,0.0
470,646f26a6,0.0
471,64e0704b,0.0
472,650ac447,0.0
473,653af477,0.0
474,65433a82,0.0
475,65483610,0.0
476,65889e87,0.0
477,65d15481,0.0
478,671814b7,0.0
479,677621de,0.0
480,681412b5,0.0
481,68e8aac5,0.0
482,6934d28e,0.0
483,6990cec1,0.0
485,69df26b0,0.0
486,6a026349,0.0
487,6a06446f,0.0
488,6a65a2e6,0.0
489,6a721d13,0.0
490,6a780973,0.0
491,6af02351,0.0
492,6b3ea9dc,0.0
493,6bb4024b,0.0
494,6bbdaa6e,0.0
495,6cf231dd,0.0
496,6d19c25e,0.0
497,6d483031,0.0
498,6d4da693,0.0
499,6d8d329d,0.0
500,6d9dc9c2,0.0
501,6df66fba,0.0
502,6e4f4369,0.0
503,6e8fbe5c,0.0
504,6e964162,0.0
505,6eb7571f,0.0
506,6ebe9c5a,0.0
507,6ef0560a,0.0
508,6f807668,0.0
509,7097a4d4,0.0
510,71731494,0.0
511,72182631,0.0
512,7294d8f9,0.0
513,73eda4e7,0.0
514,742ed624,0.0
515,749c8eae,0.0
516,756d3022,0.0
517,7599f7fd,0.0
518,75bbfb9b,0.0
519,75dcf795,0.0
520,75f4f7a5,0.0
521,76cb6b9d,0.0
522,76e6fc70,0.0
523,77453a29,0.0
524,780d23f7,0.0
525,7827da9c,0.0
526,78b0bc2e,0.0
527,791e7c78,0.0
528,79274bc0,0.0
529,7990b17b,0.0
530,7993540a,0.0
531,799d2843,0.0
532,7a5fea75,0.0
533,7a615a42,0.0
534,7a632a4e,0.0
535,7ab824b3,0.0
536,7ad41b53,0.0
537,7aec3233,0.0
538,7aeca43b,0.0
539,7c5ce634,0.0
540,7cdf7b12,0.0
541,7cfbf388,0.0
542,7d6c54cb,0.0
543,7d73d160,0.0
544,7dcc1af0,0.0
545,7dfa2d86,0.0
546,7e2333cb,0.0
547,7e9f26d7,0.0
548,7f16b704,0.0
549,7f27d55a,0.0
550,7f45c33f,0.0
551,7f612c05,0.0
552,7f9ef161,0.0
553,7faca309,0.0
554,7fb754a4,0.0
555,7fdee9ea,0.0
556,801e5d5f,0.0
557,802a352e,0.0
558,802c3e93,0.0
559,8087135c,0.0
560,809b17c5,0.0
561,80c28f68,0.0
562,815df75e,0.0
563,8196f80a,0.0
564,81feb7da,0.0
565,827b9ab9,0.0
566,82c6ef6e,0.0
567,832219a0,0.0
568,83570386,0.0
569,83883aa2,0.0
570,845463a6,0.0
571,85069d5c,0.0
572,8542bb52,0.0
573,8556a2e9,0.0
574,85c8032d,0.0
575,85ed732d,0.0
576,85f0138b,0.0
577,8626abc3,0.0
578,86f1288c,0.0
579,879bff46,0.0
580,87e58ea7,0.0
581,88516716,0.0
582,8926104f,0.0
583,897d5db5,0.0
584,89d7c2cd,0.0
585,8a5b074d,0.0
586,8a5e4d13,0.0
587,8aa22a20,0.0
588,8b8c06c9,0.0
589,8c2eac9d,0.0
590,8c301818,0.0
591,8c35d275,0.0
592,8c5f7758,0.0
593,8c697dc4,0.0
594,8e2a7bf9,0.0
595,8e57fd67,0.0
596,8e75fccd,0.0
597,8ec902f6,0.0
598,8edf8a72,0.0
599,8f559623,0.0
600,8fa155db,0.0
601,914bd4fa,0.0
602,91735ddf,0.0
603,91ab853b,0.0
604,91c46a58,0.0
605,92009faa,0.0
606,920b1f09,0.0
607,925d5829,0.0
608,92efd6da,0.0
609,930ad81a,0.0
610,9324f98b,0.0
611,9329af5f,0.0
612,93dce326,0.0
613,943f06f8,0.0
614,94456b83,0.0
615,954c9d13,0.0
616,957c4b1f,0.0
617,95bd0f03,0.0
618,95f2c3df,0.0
619,960407ed,0.0
620,960d86e4,0.0
621,96803fd7,0.0
622,96c067ae,0.0
623,96cc4c59,0.0
624,96e701fc,0.0
625,97421809,0.0
626,98087d0d,0.0
627,98160ff6,0.0
628,98575cd5,0.0
629,9886efa5,0.0
630,98c0913c,0.0
631,991452d8,0.0
632,996b4502,0.0
633,99838641,0.0
634,9a0fd579,0.0
635,9a15e71c,0.0
636,9a264cc3,0.0
637,9a264d25,0.0
638,9a6dc1cd,0.0
639,9a8fe907,0.0
640,9b5a2745,0.0
641,9b9b3e38,0.0
642,9ba682ba,0.0
643,9c03fa83,0.0
644,9c3e2907,0.0
645,9cd674e3,0.0
646,9cd68760,0.0
647,9d117175,0.0
648,9d830153,0.0
649,9d94263f,0.0
650,9df7f629,0.0
651,9e1c7e55,0.0
652,9e2a119f,0.0
653,9e4860b9,0.0
654,9ed589d1,0.0
655,9ed82f6f,0.0
656,9f022c98,0.0
657,9f1a31bd,0.0
658,9fe71e72,0.0
659,a0119736,0.0
660,a05a7cb0,0.0
661,a06296b4,0.0
662,a08deab8,0.0
663,a0a99a00,0.0
664,a1033cec,0.0
665,a12d3824,0.0
666,a1d61abd,0.0
667,a2428603,0.0
668,a25043dc,0.0
669,a28fd0e5,0.0
670,a29bcff1,0.0
671,a3371b68,0.0
672,a3e2e94c,0.0
673,a4015fdf,0.0
674,a4275566,0.0
675,a49231cd,0.0
676,a4dbef56,0.0
677,a4e68ab8,0.0
678,a4f523ec,0.0
679,a560b53a,0.0
680,a593414d,0.0
681,a5a4c15c,0.0
682,a78a8e27,0.0
683,a797e34b,0.0
684,a7a7e220,0.0
685,a7cc5f5e,0.0
686,a831acd6,0.0
687,a865692f,0.0
688,a8860810,0.0
689,a8c31de7,0.0
690,a8ef8126,0.0
691,a9249061,0.0
692,a98838b3,0.0
693,a9900f35,0.0
694,aa039e9e,0.0
695,aa4a6261,0.0
696,aa7f80f6,0.0
697,aab68d95,0.0
698,aaf3ebe0,0.0
699,ab3e2dda,0.0
700,abb17100,0.0
701,aca108b9,0.0
702,acb4cc4c,0.0
703,acc0324d,0.0
704,acdfe78d,0.0
705,ad6a38a3,0.0
706,ad741e95,0.0
707,ad95cf19,0.0
708,adb09207,0.0
709,adf2a305,0.0
710,adf46973,0.0
711,ae0a7f3d,0.0
712,ae13a117,0.0
713,ae7a056e,0.0
714,aea690dd,0.0
715,afc93f62,0.0
716,b008508e,0.0
717,b043cc46,0.0
718,b08cc5c5,0.0
719,b0db0fef,0.0
720,b1599d42,0.0
721,b23a68b5,0.0
722,b29bc4f2,0.0
723,b2cd8027,0.0
724,b2fcbcf5,0.0
725,b37ca64c,0.0
726,b3d31605,0.0
727,b46d435d,0.0
728,b49918a5,0.0
729,b4af7679,0.0
730,b4c7852d,0.0
731,b4ede362,0.0
732,b5618f7d,0.0
733,b7df8731,0.0
734,b7e27cdd,0.0
735,b838fcd7,0.0
736,b93ff73b,0.0
737,b9710d3e,0.0
738,b9bf65a0,0.0
739,b9c77d53,0.0
740,b9f7052f,0.0
741,ba6a57f4,0.0
742,ba784835,0.0
743,bad46a88,0.0
744,bbcfd4c8,0.0
745,bc1553df,0.0
746,bc7a842a,0.0
747,bca6ea9a,0.0
748,bcbab4d6,0.0
749,bd2ffcb2,0.0
750,bd302f49,0.0
751,be105137,0.0
752,bf2e1ced,0.0
753,bf91cb65,0.0
754,bfe34699,0.0
755,c021a475,0.0
756,c021d1d8,0.0
757,c02a5c3d,0.0
758,c06791e3,0.0
759,c179d094,0.0
760,c239089f,0.0
761,c26ed3c1,0.0
762,c2768dcc,0.0
763,c2943284,0.0
764,c2f74943,0.0
765,c30a8c7b,0.0
766,c3915b7e,0.0
767,c399d805,0.0
768,c447e2a9,0.0
769,c46720b0,0.0
770,c4b26e11,0.0
771,c546988e,0.0
772,c5696c4f,0.0
773,c5bcba59,0.0
774,c5e01900,0.0
775,c6338a65,0.0
776,c648daf5,0.0
777,c64e8f57,0.0
778,c672fc65,0.0
779,c67316c7,0.0
780,c6adb9d3,0.0
781,c7010d28,0.0
782,c7525ad0,0.0
783,c7bb17c3,0.0
784,c82243d0,0.0
785,c848f826,0.0
787,c8c977ad,0.0
788,c8e1e56b,0.0
789,c924406a,0.0
790,c94f9f12,0.0
791,c96554ff,0.0
792,c9b3b3e9,0.0
793,c9b71d41,0.0
794,c9bea12e,0.0
795,c9c31ad2,0.0
796,ca0b3b1c,0.0
797,cadfb809,0.0
798,cb75d03d,0.0
799,cc7f14de,0.0
800,ccd59480,0.0
801,cce6c2df,0.0
802,cd255aff,0.0
803,cd78e549,0.0
804,cdbf1eca,0.0
805,cdc067c4,0.0
806,ce747336,0.0
807,cf2c6c4a,0.0
808,d0dc8e47,0.0
809,d358adef,0.0
810,d3815105,0.0
811,d40c02a7,0.0
812,d4a33f42,0.0
813,d4ed3bba,0.0
814,d5931399,0.0
815,d5c1f336,0.0
816,d6b4e79b,0.0
817,d6b8fa23,0.0
818,d6befe9b,0.0
819,d71984af,0.0
820,d74e3e2a,0.0
821,d752604c,0.0
822,d756fca2,0.0
823,d80256bd,0.0
824,d81b8dbf,0.0
825,d86c64e9,0.0
826,d8952bf7,0.0
827,d8d00fad,0.0
828,d8f5fe4e,0.0
829,d968d0fb,0.0
830,da5e2183,0.0
831,daf6525e,0.0
832,db036b6b,0.0
833,db7bdae3,0.0
834,db90c033,0.0
835,dbe26752,0.0
836,dc187595,0.0
837,dc770331,0.0
838,dca3c39b,0.0
839,dce0253e,0.0
840,dd6509de,0.0
841,dd8f2ccf,0.0
842,ddc7e77f,0.0
843,ddef4326,0.0
844,deea5ec8,0.0
845,df5095de,0.0
846,dfe0087f,0.0
847,dfe13825,0.0
848,e0ee282d,0.0
849,e15a1626,0.0
850,e1652ca6,0.0
851,e19eef2f,0.0
852,e295488d,0.0
853,e2b3d000,0.0
854,e308bed9,0.0
855,e32118c4,0.0
856,e3370b92,0.0
857,e374254d,0.0
858,e3bfe67b,0.0
859,e3d0044e,0.0
860,e4365a01,0.0
861,e436b13e,0.0
862,e55a18a2,0.0
863,e57222b7,0.0
864,e5df6c85,0.0
865,e6dd1507,0.0
866,e6f3c0d2,0.0
867,e729a01c,0.0
868,e7d5e194,0.0
869,e8015c6e,0.0
870,e81b2647,0.0
871,e924294a,0.0
872,e93070f9,0.0
873,e9580942,0.0
874,ea0ec351,0.0
875,ea2e1931,0.0
876,eab4ac71,0.0
877,eaf75276,0.0
878,eb17c955,0.0
879,eb292ba3,0.0
880,eb925b56,0.0
881,ebb06289,0.0
882,ebb75a71,0.0
883,ebde2e84,0.0
884,ec279504,0.0
885,ecfe7b9f,0.0
886,ed3bc079,0.0
887,ed51ca59,0.0
888,ed8193e0,0.0
889,ed87e002,0.0
890,edc53e33,0.0
891,eddd0d21,0.0
892,edf58e94,0.0
893,ee2cc600,0.0
894,ee550416,0.0
895,eeac8463,0.0
896,eec059e9,0.0
897,eec27646,0.0
898,eee5c8ed,0.0
899,ef08f61b,0.0
900,ef52fbae,0.0
901,efe205df,0.0
902,efe7cf96,0.0
903,f068357b,0.0
904,f090be3f,0.0
905,f15ca327,0.0
906,f18713ea,0.0
907,f262e532,0.0
908,f2b833a6,0.0
909,f2f4a881,0.0
910,f327e757,0.0
911,f3396afe,0.0
912,f33a1f6b,0.0
913,f470a487,0.0
914,f4b3a265,0.0
915,f571c234,0.0
916,f5c659ad,0.0
917,f60a2075,0.0
918,f60bc1f7,0.0
919,f6cb638e,0.0
920,f7662705,0.0
921,f7b8dc77,0.0
922,f8780a7d,0.0
923,f885c7b3,0.0
924,f897ed9c,0.0
925,f99285f3,0.0
926,f9a6d461,0.0
927,f9f187b1,0.0
928,fa502ca1,0.0
929,fa9c8303,0.0
930,faac8540,0.0
931,fb1aef6f,0.0
932,fb59e49d,0.0
933,fb793f44,0.0
934,fb970098,0.0
935,fba45284,0.0
936,fcf718c1,0.0
937,fd4487be,0.0
938,fd78823d,0.0
939,fea391d0,0.0
940,fea766ee,0.0
941,fef6459d,0.0
942,ff0f0592,0.0
943,ff5bb221,0.0
944,ff7a313f,0.0
945,ff9d0788,0.0
946,ffbea3ab,0.0
947,0268f2c1,0.0
948,06690e72,0.0
949,0f09c5cb,0.0
950,138472a0,0.0
951,1bcdc925,0.0
952,1d676941,0.0
953,1d6d8904,0.0
954,2c28e197,0.0
955,2ee930df,0.0
956,331ec648,0.0
957,35ef2b85,0.0
958,3e0d12df,0.0
959,44ebc94b,0.0
960,4e3e20e0,0.0
961,4e86dd75,0.0
962,4fabfa8c,0.0
963,50a36cf3,0.0
964,5af0fd8b,0.0
965,5bdc9a45,0.0
966,65009cd6,0.0
967,6ba3be18,0.0
968,71af1247,0.0
969,726ba225,0.0
970,7c6ca9a6,0.0
971,7fc3cc19,0.0
972,8af9e902,0.0
973,8bd32eeb,0.0
974,8c4c31c4,0.0
975,92a51b2c,0.0
976,ab1f6560,0.0
977,bdbd0db1,0.0
978,bedea8f7,0.0
979,bfc405c7,0.0
980,c32ac53a,0.0
981,d2014820,0.0
982,da96e762,0.0
983,db678687,0.0
984,dcb57e55,0.0
985,e28f20b6,0.0
986,e456b79b,0.0
987,eda857ba,0.0
988,eef1266b,0.0
989,ef62d4f4,0.0
990,f1cb5fdb,0.0
991,f3baab95,0.0
992,ff37fef9,0.0
